<?xml version="1.0" encoding="UTF-8"?>
<glyph name="bracketright" format="2">
  <advance width="271"/>
  <unicode hex="005D"/>
  <outline>
    <contour>
      <point x="185" y="0" type="line"/>
      <point x="183" y="0" type="line"/>
      <point x="80" y="0" type="line" smooth="yes"/>
      <point x="53" y="0"/>
      <point x="31" y="22"/>
      <point x="31" y="49" type="curve" smooth="yes"/>
      <point x="31" y="77"/>
      <point x="53" y="99"/>
      <point x="80" y="99" type="curve" smooth="yes"/>
      <point x="136" y="99" type="line"/>
      <point x="136" y="650" type="line"/>
      <point x="80" y="650" type="line" smooth="yes"/>
      <point x="53" y="650"/>
      <point x="31" y="672"/>
      <point x="31" y="699" type="curve" smooth="yes"/>
      <point x="31" y="727"/>
      <point x="53" y="749"/>
      <point x="80" y="749" type="curve" smooth="yes"/>
      <point x="181" y="749" type="line"/>
      <point x="183" y="749" type="line"/>
      <point x="187" y="749" type="line" smooth="yes"/>
      <point x="214" y="748"/>
      <point x="235" y="726"/>
      <point x="235" y="700" type="curve" smooth="yes"/>
      <point x="235" y="50" type="line" smooth="yes"/>
      <point x="235" y="22"/>
      <point x="214" y="1"/>
      <point x="187" y="0" type="curve" smooth="yes"/>
    </contour>
  </outline>
  <lib>
    <dict>
      <key>com.fontlab.hintData</key>
      <dict>
        <key>hhints</key>
        <array>
          <dict>
            <key>position</key>
            <integer>0</integer>
            <key>width</key>
            <integer>99</integer>
          </dict>
          <dict>
            <key>position</key>
            <integer>650</integer>
            <key>width</key>
            <integer>99</integer>
          </dict>
        </array>
        <key>vhints</key>
        <array>
          <dict>
            <key>position</key>
            <integer>31</integer>
            <key>width</key>
            <integer>204</integer>
          </dict>
          <dict>
            <key>position</key>
            <integer>136</integer>
            <key>width</key>
            <integer>99</integer>
          </dict>
        </array>
      </dict>
    </dict>
  </lib>
</glyph>
